-- Merging decision tree log ---
manifest
ADDED from C:\Users\Gonzalo\AndroidStudioProjects\maker\geocar as\app\src\main\AndroidManifest.xml:2:1-55:12
	package
		ADDED from C:\Users\Gonzalo\AndroidStudioProjects\maker\geocar as\app\src\main\AndroidManifest.xml:3:5-42
		INJECTED from C:\Users\Gonzalo\AndroidStudioProjects\maker\geocar as\app\src\main\AndroidManifest.xml
		INJECTED from C:\Users\Gonzalo\AndroidStudioProjects\maker\geocar as\app\src\main\AndroidManifest.xml
	android:versionName
		ADDED from C:\Users\Gonzalo\AndroidStudioProjects\maker\geocar as\app\src\main\AndroidManifest.xml:5:5-30
		INJECTED from C:\Users\Gonzalo\AndroidStudioProjects\maker\geocar as\app\src\main\AndroidManifest.xml
		INJECTED from C:\Users\Gonzalo\AndroidStudioProjects\maker\geocar as\app\src\main\AndroidManifest.xml
	android:versionCode
		ADDED from C:\Users\Gonzalo\AndroidStudioProjects\maker\geocar as\app\src\main\AndroidManifest.xml:4:5-28
		INJECTED from C:\Users\Gonzalo\AndroidStudioProjects\maker\geocar as\app\src\main\AndroidManifest.xml
		INJECTED from C:\Users\Gonzalo\AndroidStudioProjects\maker\geocar as\app\src\main\AndroidManifest.xml
	xmlns:android
		ADDED from C:\Users\Gonzalo\AndroidStudioProjects\maker\geocar as\app\src\main\AndroidManifest.xml:2:11-69
uses-sdk
ADDED from C:\Users\Gonzalo\AndroidStudioProjects\maker\geocar as\app\src\main\AndroidManifest.xml:7:5-9:41
MERGED from [com.android.support:appcompat-v7:23.4.0] C:\Users\Gonzalo\.android\build-cache\b6bb55955f4d83eb97efb35d3e722743d0f6c160\output\AndroidManifest.xml:21:5-23:78
MERGED from [com.android.support:animated-vector-drawable:23.4.0] C:\Users\Gonzalo\.android\build-cache\0bdfa7a42926b20adae0ce1139e09cd36f8988c1\output\AndroidManifest.xml:5:5-44
MERGED from [com.android.support:support-vector-drawable:23.4.0] C:\Users\Gonzalo\.android\build-cache\c8cd26744d2bf039f311833ca972c80de7af06f3\output\AndroidManifest.xml:5:5-43
MERGED from [com.android.support:support-v4:23.4.0] C:\Users\Gonzalo\.android\build-cache\5511da6c5c4554554b52855e79714327eab0e9e2\output\AndroidManifest.xml:20:5-43
	tools:overrideLibrary
		ADDED from [com.android.support:appcompat-v7:23.4.0] C:\Users\Gonzalo\.android\build-cache\b6bb55955f4d83eb97efb35d3e722743d0f6c160\output\AndroidManifest.xml:23:9-75
	android:targetSdkVersion
		ADDED from C:\Users\Gonzalo\AndroidStudioProjects\maker\geocar as\app\src\main\AndroidManifest.xml:9:9-38
		INJECTED from C:\Users\Gonzalo\AndroidStudioProjects\maker\geocar as\app\src\main\AndroidManifest.xml
		INJECTED from C:\Users\Gonzalo\AndroidStudioProjects\maker\geocar as\app\src\main\AndroidManifest.xml
	android:minSdkVersion
		ADDED from C:\Users\Gonzalo\AndroidStudioProjects\maker\geocar as\app\src\main\AndroidManifest.xml:8:9-35
		INJECTED from C:\Users\Gonzalo\AndroidStudioProjects\maker\geocar as\app\src\main\AndroidManifest.xml
		INJECTED from C:\Users\Gonzalo\AndroidStudioProjects\maker\geocar as\app\src\main\AndroidManifest.xml
uses-permission#android.permission.ACCESS_NETWORK_STATE
ADDED from C:\Users\Gonzalo\AndroidStudioProjects\maker\geocar as\app\src\main\AndroidManifest.xml:11:5-79
	android:name
		ADDED from C:\Users\Gonzalo\AndroidStudioProjects\maker\geocar as\app\src\main\AndroidManifest.xml:11:22-76
uses-permission#android.permission.INTERNET
ADDED from C:\Users\Gonzalo\AndroidStudioProjects\maker\geocar as\app\src\main\AndroidManifest.xml:12:5-67
	android:name
		ADDED from C:\Users\Gonzalo\AndroidStudioProjects\maker\geocar as\app\src\main\AndroidManifest.xml:12:22-64
uses-permission#android.permission.WRITE_EXTERNAL_STORAGE
ADDED from C:\Users\Gonzalo\AndroidStudioProjects\maker\geocar as\app\src\main\AndroidManifest.xml:13:5-81
	android:name
		ADDED from C:\Users\Gonzalo\AndroidStudioProjects\maker\geocar as\app\src\main\AndroidManifest.xml:13:22-78
uses-permission#android.permission.ACCESS_COARSE_LOCATION
ADDED from C:\Users\Gonzalo\AndroidStudioProjects\maker\geocar as\app\src\main\AndroidManifest.xml:14:5-81
	android:name
		ADDED from C:\Users\Gonzalo\AndroidStudioProjects\maker\geocar as\app\src\main\AndroidManifest.xml:14:22-78
application
ADDED from C:\Users\Gonzalo\AndroidStudioProjects\maker\geocar as\app\src\main\AndroidManifest.xml:16:5-53:19
MERGED from [com.android.support:appcompat-v7:23.4.0] C:\Users\Gonzalo\.android\build-cache\b6bb55955f4d83eb97efb35d3e722743d0f6c160\output\AndroidManifest.xml:25:5-20
MERGED from [com.android.support:animated-vector-drawable:23.4.0] C:\Users\Gonzalo\.android\build-cache\0bdfa7a42926b20adae0ce1139e09cd36f8988c1\output\AndroidManifest.xml:7:5-20
MERGED from [com.android.support:support-vector-drawable:23.4.0] C:\Users\Gonzalo\.android\build-cache\c8cd26744d2bf039f311833ca972c80de7af06f3\output\AndroidManifest.xml:7:5-20
MERGED from [com.android.support:support-v4:23.4.0] C:\Users\Gonzalo\.android\build-cache\5511da6c5c4554554b52855e79714327eab0e9e2\output\AndroidManifest.xml:22:5-20
	android:label
		ADDED from C:\Users\Gonzalo\AndroidStudioProjects\maker\geocar as\app\src\main\AndroidManifest.xml:19:9-41
	android:allowBackup
		ADDED from C:\Users\Gonzalo\AndroidStudioProjects\maker\geocar as\app\src\main\AndroidManifest.xml:17:9-35
	android:icon
		ADDED from C:\Users\Gonzalo\AndroidStudioProjects\maker\geocar as\app\src\main\AndroidManifest.xml:18:9-43
	android:theme
		ADDED from C:\Users\Gonzalo\AndroidStudioProjects\maker\geocar as\app\src\main\AndroidManifest.xml:20:9-40
activity#com.makerit.posicionmoviles.ui.LoginActivity
ADDED from C:\Users\Gonzalo\AndroidStudioProjects\maker\geocar as\app\src\main\AndroidManifest.xml:21:9-29:20
	android:label
		ADDED from C:\Users\Gonzalo\AndroidStudioProjects\maker\geocar as\app\src\main\AndroidManifest.xml:23:13-45
	android:name
		ADDED from C:\Users\Gonzalo\AndroidStudioProjects\maker\geocar as\app\src\main\AndroidManifest.xml:22:13-45
intent-filter#android.intent.action.MAIN+android.intent.category.LAUNCHER
ADDED from C:\Users\Gonzalo\AndroidStudioProjects\maker\geocar as\app\src\main\AndroidManifest.xml:24:13-28:29
action#android.intent.action.MAIN
ADDED from C:\Users\Gonzalo\AndroidStudioProjects\maker\geocar as\app\src\main\AndroidManifest.xml:25:17-69
	android:name
		ADDED from C:\Users\Gonzalo\AndroidStudioProjects\maker\geocar as\app\src\main\AndroidManifest.xml:25:25-66
category#android.intent.category.LAUNCHER
ADDED from C:\Users\Gonzalo\AndroidStudioProjects\maker\geocar as\app\src\main\AndroidManifest.xml:27:17-77
	android:name
		ADDED from C:\Users\Gonzalo\AndroidStudioProjects\maker\geocar as\app\src\main\AndroidManifest.xml:27:27-74
activity#com.makerit.posicionmoviles.ui.MovilActivity
ADDED from C:\Users\Gonzalo\AndroidStudioProjects\maker\geocar as\app\src\main\AndroidManifest.xml:30:9-36:20
	android:label
		ADDED from C:\Users\Gonzalo\AndroidStudioProjects\maker\geocar as\app\src\main\AndroidManifest.xml:32:13-45
	android:name
		ADDED from C:\Users\Gonzalo\AndroidStudioProjects\maker\geocar as\app\src\main\AndroidManifest.xml:31:13-45
meta-data#android.support.PARENT_ACTIVITY
ADDED from C:\Users\Gonzalo\AndroidStudioProjects\maker\geocar as\app\src\main\AndroidManifest.xml:33:13-35:81
	android:value
		ADDED from C:\Users\Gonzalo\AndroidStudioProjects\maker\geocar as\app\src\main\AndroidManifest.xml:35:17-78
	android:name
		ADDED from C:\Users\Gonzalo\AndroidStudioProjects\maker\geocar as\app\src\main\AndroidManifest.xml:34:17-63
activity#com.makerit.posicionmoviles.ui.ListaActivity
ADDED from C:\Users\Gonzalo\AndroidStudioProjects\maker\geocar as\app\src\main\AndroidManifest.xml:37:9-44:20
	android:label
		ADDED from C:\Users\Gonzalo\AndroidStudioProjects\maker\geocar as\app\src\main\AndroidManifest.xml:39:13-45
	android:name
		ADDED from C:\Users\Gonzalo\AndroidStudioProjects\maker\geocar as\app\src\main\AndroidManifest.xml:38:13-45
activity#com.makerit.posicionmoviles.ui.AcercaDe
ADDED from C:\Users\Gonzalo\AndroidStudioProjects\maker\geocar as\app\src\main\AndroidManifest.xml:46:9-51:20
	android:label
		ADDED from C:\Users\Gonzalo\AndroidStudioProjects\maker\geocar as\app\src\main\AndroidManifest.xml:48:13-45
	android:name
		ADDED from C:\Users\Gonzalo\AndroidStudioProjects\maker\geocar as\app\src\main\AndroidManifest.xml:47:13-40
